0,
1,R
2,B
3,X
4,C
5,F
6,XF
7,XC
8,CC
9,XRC
10,BR
11,BF
12,BC
13,RC
14,CF
15,RF
16,RR
17,XR
18,CR
19,RRC
20,CRR
21,RRR
22,BRC
23,BRRC
24,XCC
25,XRR
26,CRC
27,XRRC
28,BRR
29,XRF
30,RRF
31,BRF
32,XCF
33,CCF
34,RCF
35,CCC
36,BCC
37,CRF
38,CRRC
39,BCF
40,XCRR
41,RRRC
42,XCR
43,XRRR
44,RRRR
45,RCC
46,RCCC
47,RCR
48,BRRR
49,XRRRC
50,BRRRC
51,XRRRR
52,RRRRC
53,XRRF
54,BRRRRRC
55,XRRRRRR
56,CRRRC
57,BCR
58,RRRRR
59,CCR
60,XCCC
61,XRCF
62,BRRRRRRRRRRC
63,RRRRRRRRRRR
64,CRRR
65,CCCCCC
66,XRCC
67,BRRRR
68,XRRRRC
69,XCRC
70,RRRF
71,CCCF
72,RCCF
73,BRRRRR
74,RRRRRC
75,XCCF
76,RRRRRRRR
77,RRRRRRRC
78,CRRRRRRC
79,RRRRRRR
80,CCCC
81,BRRRRC
82,RRCC
83,CCCCCF
84,CCRC
85,RRRRRR
86,CCCCF
87,RRRRRRRRRRRRC
88,BRRRRRRRRRRRR
89,XRRRRR
90,XRCCC
91,XCRRC
92,BRRF
93,XCRF
94,CRCC
95,CRRRR
96,XRRRF
97,BRRRRRRR
98,XRRRRRRRC
99,XRRRRRC
100,BCRC
101,RCRR
102,XRRRRRRC
103,RRRRRRC
104,RRRRF
105,CCCR
106,XCCCC
107,BRRRF
108,CCCRC
109,CRRF
110,CRRRRRRRC
111,BCRR
112,CRRRRR
113,BCCC
114,CRRRRRC
115,CRRRRRR
116,RCRC
117,BRRRRRRRRRRRRRRRR
118,RRRRRRRRRRRRRRRRC
119,BRRRRRR
120,RCRRRC
121,BRCF
122,XRRRRRRRRRRRRRRRRRRRRRRRRRRRRRRRRRRRRRRRRRRRRRC
123,BRRRRRRRRRRRRRRRRRRRRRRRRRRRRRRRRRRRRRRRRRRRRR
124,CRRRRC
125,RRRRRRRRRRC
126,BRRRRRRRRRR
127,CCCCC
128,BCRF
129,RRRRRRRRC
130,BRRRRRRRR
131,BRRRRRRRRR
132,RRRRRRRRRC
133,CCRF
134,BRRRRRRC
135,BCCR
136,BRCC
