mi\poker\calculation\CardUtil.class
com\masa\component\VillainContinueRangeSlider$1.class
mi\poker\calculation\MonteCarloSimulation.class
com\masa\range\raise\PreflopRangeVsOpenResolver.class
com\masa\pokertracker\model\PTHandReportTurnDataSumResponse.class
mi\poker\calculation\ExhaustiveEnumeration.class
mi\poker\common\model\testbed\spears2p2\Unique.class
com\masa\util\MadeHandAnalyzer$1.class
com\masa\pokertracker\analyzer\PTHandStrengthFourOfAKindAnalyzer.class
com\masa\pokertracker\model\Site.class
com\masa\pokertracker\model\PlayerIdPosition.class
com\masa\pokertracker\model\PTHandReportDataSumResponse.class
mi\poker\common\model\testbed\spears2p2\Products.class
mi\poker\common\model\testbed\spears2p2\Card.class
com\masa\pokertracker\analyzer\PTHandStrengthStraightAnalyzer.class
com\masa\pokertracker\model\PTHandReportDataResponse.class
com\masa\range\raise\PreflopRangeOpenResolver.class
com\masa\util\PFAggressorAnalyzer$1.class
com\masa\type\Looseness.class
com\masa\util\HUDStatUtil.class
mi\poker\calculation\Calculation.class
com\masa\util\RangeUtil.class
com\masa\util\MadeHandFullhouseAnalyzer.class
mi\poker\common\model\testbed\klaatu\HandFST$NonFinalHandState.class
com\masa\type\ThreeTypeValue.class
mi\poker\calculation\HandInfo.class
com\masa\util\MadeHandTwoPairAnalyzer.class
com\masa\util\MadeHandUtil.class
com\masa\repository\C3P0DataSource.class
com\masa\pokertracker\PTUtil.class
mi\poker\common\utils\HandUtil.class
com\masa\pokertracker\PTHandStrengthUtil$1.class
com\masa\pokertracker\model\QueryBuilderPositions.class
mi\poker\calculation\EquityCalculation.class
com\masa\pokertracker\model\PTPosition.class
com\masa\util\EquityHandler.class
com\masa\pokertracker\model\HandReportDataFlopSumResponse.class
mi\poker\common\model\testbed\spears2p2\StateTableEvaluator.class
mi\poker\common\model\testbed\spears2p2\Rank.class
com\masa\util\MadeHandFlushAnalyzer.class
mi\poker\calculation\CardDistributionUtil.class
mi\poker\common\model\testbed\klaatu\HandFST$StateComp.class
mi\poker\calculation\StupidRangeStrategy.class
com\masa\component\VillainContinueRangeCheckboxes.class
com\masa\util\AggressivenessMeter$1.class
mi\poker\common\model\testbed\klaatu\HandFST$HandState.class
com\masa\pokertracker\analyzer\PTHandStrengthTwoPairAnalyzer.class
com\masa\type\Frequency.class
com\masa\util\RangeAdvantageAnalyzer.class
com\masa\type\BetRange.class
mi\poker\common\utils\CollectionUtil.class
mi\poker\common\model\testbed\spears2p2\Values.class
com\masa\component\VillainContinueRangeSlider.class
com\masa\type\PositionPostFlop.class
com\masa\util\MadeHandAnalyzer.class
com\masa\util\PFAggressorAnalyzer.class
mi\poker\common\model\testbed\klaatu\HandFST$FinalHandState.class
com\masa\pokertracker\PTHandStrengthUtil.class
com\masa\type\FiveTypeValue.class
com\masa\util\VulnerabilityAnalyzer.class
com\masa\type\Range.class
com\masa\util\DrawAnalyzer.class
mi\poker\common\model\testbed\spears2p2\Pair.class
com\masa\pokertracker\analyzer\PTHandStrengthStraightFlushAnalyzer.class
com\masa\util\MadeHandQuadsAnalyzer.class
com\masa\pokertracker\analyzer\PTHandStrengthHighCardAnalyzer.class
com\masa\type\HUDStat.class
mi\poker\common\model\testbed\spears2p2\Suit.class
mi\poker\calculation\Result.class
com\masa\action\PreflopActionOpenResolver.class
com\masa\util\AggressivenessMeter.class
com\masa\range\raise\PreflopRangeVs3BetResolver.class
com\masa\util\RangeConnectivityAnalyzer.class
com\masa\pokertracker\analyzer\HandCategoryAnalyzer.class
com\masa\pokertracker\analyzer\PTHandStrengthPairAnalyzer.class
com\masa\util\HandStrengthAnalyzer.class
com\masa\repository\DatabaseUtility.class
com\masa\action\PreflopActionVs3BetResolver.class
com\masa\pokertracker\analyzer\PTHandStrengthFlushAnalyzer.class
com\masa\pokertracker\analyzer\PTHandStrengthAnalyzer.class
com\masa\pokertracker\model\PTMadeHand.class
com\masa\util\MadeHandPairAnalyzer.class
mi\poker\common\model\testbed\spears2p2\Hand.class
mi\poker\calculation\HandParser.class
com\masa\type\PositionPreFlop.class
com\masa\util\MadeHandSetAnalyzer.class
com\masa\type\Aggressiveness.class
com\masa\type\RangeConnectivity.class
mi\poker\calculation\BaseRangeStrategy.class
com\masa\pokertracker\PokerTrackerRepository.class
com\masa\action\PreflopActionVsOpenResolver.class
com\masa\util\MadeHandStraightFlushAnalyzer.class
com\masa\pokertracker\model\WinningPlayersMovesResponse.class
com\masa\pokertracker\model\PTHandReportRiverDataSumResponse.class
com\masa\pokertracker\model\PTHandStrength.class
mi\poker\common\model\testbed\klaatu\HandEval.class
com\masa\type\PreflopHandVsHandEquity.class
mi\poker\common\model\testbed\klaatu\HandEval$HandCategory.class
com\masa\component\VillainContinueDrawRangeCheckboxes.class
com\masa\pokertracker\model\HandCategory.class
com\masa\util\NutAdvantageAnalyzer.class
com\masa\pokertracker\analyzer\PTHandStrengthFullHouseAnalyzer.class
mi\poker\common\model\testbed\klaatu\HandFST.class
mi\poker\common\model\testbed\spears2p2\Tester.class
mi\poker\calculation\Main.class
com\masa\pokertracker\model\WinningPlayersResponse.class
mi\poker\common\model\testbed\klaatu\PartialStageFastEval.class
mi\poker\common\model\testbed\spears2p2\Flushes.class
com\masa\pokertracker\model\Combination.class
com\masa\util\MadeHandStraightAnalyzer.class
com\masa\pokertracker\analyzer\PTHandStrengthThreeOfAKindAnalyzer.class
